{
  "group1": {
    "name": "Group 1",
    "section": "section1",
    "stage": "stage_with_two_groups",
    "categories": [
      "category1",
      "category2"
    ],
    "label": "group::group1",
    "slack_channel": "group1"
  },
  "group2": {
    "name": "Group 2",
    "section": "section1",
    "stage": "stage_with_two_groups",
    "categories": [
      "category3",
      "category4"
    ],
    "label": "group::group2",
    "slack_channel": "group2"
  },
  "group3": {
    "name": "Group 3",
    "section": "section2",
    "stage": "stage_with_one_group",
    "categories": [
      "category5"
    ],
    "label": "group::group3",
    "slack_channel": "group3"
  }
}
